Unevaluated expressions
…
mu_basis2 <- cbind(1, predict(mu_basis, newx = newx))
sigma_basis2 <- cbind(1, predict(sigma_basis, newx = newx))

manual_centile <- tibble::tibble(
  age_months = newx,
  # multiply coefficients and undo link function
  mu = plogis(mu_basis2 %*% coef(model, what = "mu"))[, 1],
  sigma = plogis(sigma_basis2 %*% coef(model, what = "sigma"))[, 1],
  # now take centiles
  c10 = gamlss.dist::qBE(.1, mu, sigma)
)
manual_centile
#> # A tibble: 25 x 4
#>    age_months    mu sigma   c10
#>         <dbl> <dbl> <dbl> <dbl>
#>  1         36 0.522 0.341 0.294
#>  2         37 0.560 0.334 0.336
#>  3         38 0.596 0.328 0.378
#>  4         39 0.630 0.321 0.418
#>  5         40 0.661 0.315 0.456
#>  6         41 0.688 0.309 0.491
#>  7         42 0.712 0.304 0.522
#>  8         43 0.731 0.298 0.548
#>  9         44 0.745 0.293 0.569
#> 10         45 0.755 0.288 0.584
#> # ... with 15 more rows
…
